…
#resetting factors 
FC_updated$Candidate_name <- factor(FC_updated$Candidate_name)

#resulting table is as below
FC_updated

## # A tibble: 24 x 6
##               Candidate_name sum_amount median_amount mean_amount
##                       <fctr>      <dbl>         <dbl>       <dbl>
##  1   Clinton, Hillary Rodham 16152026.8         25.00   131.70921
##  2          Trump, Donald J.  3490011.1         55.13   149.35641
##  3          Sanders, Bernard  3295108.3         27.00    43.07218
##  4 Cruz, Rafael Edward 'Ted'  1241112.7         50.00    92.85596
##  5              Rubio, Marco   964158.9        100.00   322.78505
##  6                 Bush, Jeb   640064.0        300.00  1014.36450
##  7       Carson, Benjamin S.   638877.6         50.00   106.78215
##  8           Kasich, John R.   539898.2        250.00   516.64904
##  9             Walker, Scott   355916.0        250.00   711.83200
## 10                Paul, Rand   196795.2         50.00   168.05735
## # ... with 14 more rows, and 2 more variables: max_amount <dbl>, n <int>
…
